{
  "user": {
    "selectAll": "SELECT * FROM USERS",
    "selectByEmail": "SELECT * FROM USERS WHERE EMAIL = ?",
    "selectById": "SELECT * FROM USERS WHERE ID = ?",
    "insert": "INSERT INTO USERS (NAME, EMAIL, PASSWORD) VALUES (?,?,?)"
  }
}
